%YAML 1.1
%TAG !u! tag:unity3d.com,2011:
--- !u!1 &492311566255207720
GameObject:
  m_ObjectHideFlags: 0
  m_CorrespondingSourceObject: {fileID: 0}
  m_PrefabInstance: {fileID: 0}
  m_PrefabAsset: {fileID: 0}
  serializedVersion: 6
  m_Component:
  - component: {fileID: 492311566255207722}
  - component: {fileID: 492311566255207721}
  m_Layer: 0
  m_Name: AudioManager
  m_TagString: Untagged
  m_Icon: {fileID: 0}
  m_NavMeshLayer: 0
  m_StaticEditorFlags: 0
  m_IsActive: 1
--- !u!4 &492311566255207722
Transform:
  m_ObjectHideFlags: 0
  m_CorrespondingSourceObject: {fileID: 0}
  m_PrefabInstance: {fileID: 0}
  m_PrefabAsset: {fileID: 0}
  m_GameObject: {fileID: 492311566255207720}
  m_LocalRotation: {x: 0, y: 0, z: 0, w: 1}
  m_LocalPosition: {x: 0, y: 0, z: 0}
  m_LocalScale: {x: 1, y: 1, z: 1}
  m_Children: []
  m_Father: {fileID: 0}
  m_RootOrder: 0
  m_LocalEulerAnglesHint: {x: 0, y: 0, z: 0}
--- !u!114 &492311566255207721
MonoBehaviour:
  m_ObjectHideFlags: 0
  m_CorrespondingSourceObject: {fileID: 0}
  m_PrefabInstance: {fileID: 0}
  m_PrefabAsset: {fileID: 0}
  m_GameObject: {fileID: 492311566255207720}
  m_Enabled: 1
  m_EditorHideFlags: 0
  m_Script: {fileID: 11500000, guid: 106776da051a92e448842bb6e0b3c927, type: 3}
  m_Name: 
  m_EditorClassIdentifier: 
  sounds2D:
  - name: Theme1
    clip: {fileID: 8300000, guid: bc23e80d972ca6341b21ac94f72f6ebb, type: 3}
    volume: 0.5
    loop: 1
    source: {fileID: 0}
  - name: Theme2
    clip: {fileID: 8300000, guid: c5cd235d79996aa4b85d67a371e6fc8a, type: 3}
    volume: 0.4
    loop: 1
    source: {fileID: 0}
  - name: Theme3
    clip: {fileID: 8300000, guid: 377f1d1ce41ff324992b6d989026c374, type: 3}
    volume: 0.5
    loop: 1
    source: {fileID: 0}
  - name: RotationFastMedium
    clip: {fileID: 8300000, guid: b74c50f249039d34a9760f1e86ad7c25, type: 3}
    volume: 0.1
    loop: 0
    source: {fileID: 0}
  - name: RotationFastStrong
    clip: {fileID: 8300000, guid: fe5d73b82738c544b9330a85ee3ec808, type: 3}
    volume: 0.1
    loop: 0
    source: {fileID: 0}
  - name: RotationSlowMedium
    clip: {fileID: 8300000, guid: 263a19847681eda49b1aba0abe269ae9, type: 3}
    volume: 0.1
    loop: 0
    source: {fileID: 0}
  - name: RotationSlowStrong
    clip: {fileID: 8300000, guid: ed6500011dcc0a44d8e45aedee532b71, type: 3}
    volume: 0.1
    loop: 0
    source: {fileID: 0}
  - name: BeginLevel1
    clip: {fileID: 8300000, guid: 7e58934e371b30945b181b1cf175e304, type: 3}
    volume: 0.2
    loop: 0
    source: {fileID: 0}
  - name: BeginLevel2
    clip: {fileID: 8300000, guid: 1f7755bfdc0492046bfd437df2c2f8c7, type: 3}
    volume: 0.2
    loop: 0
    source: {fileID: 0}
  - name: BeginLevel3
    clip: {fileID: 8300000, guid: 5e23dc0a6f5473c4682a9940e6e85a84, type: 3}
    volume: 0.2
    loop: 0
    source: {fileID: 0}
  - name: MenuHover
    clip: {fileID: 8300000, guid: 6ad199eb317811c4da568b64d6b747d4, type: 3}
    volume: 0.5
    loop: 0
    source: {fileID: 0}
  - name: MenuSelect
    clip: {fileID: 8300000, guid: a3df0f9483c7e7c4f8767d3652a7b43d, type: 3}
    volume: 0.05
    loop: 0
    source: {fileID: 0}
  - name: Victory
    clip: {fileID: 8300000, guid: 7301b4518783ce445960c20bd56b9745, type: 3}
    volume: 0.5
    loop: 0
    source: {fileID: 0}
  sounds3D:
  - name: CollisionHardFast
    clip: {fileID: 8300000, guid: e2df504229b690a4181397918885e6d8, type: 3}
    volume: 0.8
    loop: 0
    source: {fileID: 0}
  - name: CollisionHardSlow
    clip: {fileID: 8300000, guid: 9f8f94e7d4149584ca241ed9e65e9bca, type: 3}
    volume: 0.8
    loop: 0
    source: {fileID: 0}
  - name: CollisionLeaves
    clip: {fileID: 8300000, guid: 0e3a7e8bac161c349a08cdee8d046c4b, type: 3}
    volume: 1
    loop: 0
    source: {fileID: 0}
  - name: CollisionSoftFast
    clip: {fileID: 8300000, guid: 8ac110027f7672c41a2010089ad26d84, type: 3}
    volume: 0.8
    loop: 0
    source: {fileID: 0}
  - name: CollisionSoftMedium
    clip: {fileID: 8300000, guid: 3c03f2e85cbb2904db533a0e23f3dab3, type: 3}
    volume: 0.8
    loop: 0
    source: {fileID: 0}
  - name: CollisionSoftSlow
    clip: {fileID: 8300000, guid: 9881ecc376652df409d11a942214b814, type: 3}
    volume: 0.8
    loop: 0
    source: {fileID: 0}
  - name: CollisionFruit
    clip: {fileID: 8300000, guid: 6cc39111db79cff44b533fdbe46884db, type: 3}
    volume: 1
    loop: 0
    source: {fileID: 0}
  startSound: BeginLevel1
  ambientSound: Theme1
