%YAML 1.1
%TAG !u! tag:unity3d.com,2011:
--- !u!21 &2100000
Material:
  serializedVersion: 6
  m_ObjectHideFlags: 0
  m_CorrespondingSourceObject: {fileID: 0}
  m_PrefabInstance: {fileID: 0}
  m_PrefabAsset: {fileID: 0}
  m_Name: MAT_SkyBox_Cave
  m_Shader: {fileID: 4800000, guid: 9969ed8dabe0b294389f9cfd011f2b15, type: 3}
  m_ShaderKeywords: 
  m_LightmapFlags: 4
  m_EnableInstancingVariants: 0
  m_DoubleSidedGI: 0
  m_CustomRenderQueue: -1
  stringTagMap: {}
  disabledShaderPasses: []
  m_SavedProperties:
    serializedVersion: 3
    m_TexEnvs: []
    m_Floats:
    - _Exponent1: 2.03
    - _Exponent2: 1.88
    - _Intensity: 1
    m_Colors:
    - _Color1: {r: 0.3019608, g: 0.26666668, b: 0.30980393, a: 1}
    - _Color2: {r: 0.30176237, g: 0.26481187, b: 0.311, a: 1}
    - _Color3: {r: 0.35600746, g: 0.2964222, b: 0.3679245, a: 1}
  m_BuildTextureStacks: []
